{
    "page": 1,
    "pages": 293,
    "total": 1169,
    "data": [
        {
            "id": "1383",
            "question": "1",
            "image_file": "",
            "a1": "1",
            "a2": "2",
            "a3": "35",
            "a4": "",
            "num": "3",
            "points": "1",
            "difficulty": "1",
            "category": "a",
            "create_time": "2014-05-01 11:50:04",
            "update_time": "2014-05-01 11:50:13",
            "param1": "",
            "param2": "",
            "param3": "",
            "user": "",
            "examen": "a",
            "is_examen": "1",
            "extra_file": "",
            "extra_image": "",
            "extra_url": "",
            "extra_embed": ""
        },
        {
            "id": "1382",
            "question": "ghjhgjh",
            "image_file": "",
            "a1": "ghjh",
            "a2": "dfdg",
            "a3": "dfgfdg",
            "a4": "",
            "num": "3",
            "points": "1",
            "difficulty": "2",
            "category": "test",
            "create_time": "2014-04-30 13:41:58",
            "update_time": "2014-04-30 13:41:58",
            "param1": "",
            "param2": "",
            "param3": "",
            "user": "",
            "examen": "t",
            "is_examen": "1",
            "extra_file": "",
            "extra_image": "",
            "extra_url": "",
            "extra_embed": ""
        },
        {
            "id": "1381",
            "question": "sdfsdf",
            "image_file": "",
            "a1": "sdfsdf",
            "a2": "gfjghj",
            "a3": "hjkjhk",
            "a4": "",
            "num": "3",
            "points": "1",
            "difficulty": "2",
            "category": "test",
            "create_time": "2014-04-30 12:43:24",
            "update_time": "2014-04-30 12:43:24",
            "param1": "",
            "param2": "",
            "param3": "",
            "user": "",
            "examen": "t",
            "is_examen": "1",
            "extra_file": "",
            "extra_image": "",
            "extra_url": "",
            "extra_embed": ""
        },
        {
            "id": "1380",
            "question": "Miguel Test",
            "image_file": "",
            "a1": "tes",
            "a2": "ets",
            "a3": "tes",
            "a4": "wer",
            "num": "4",
            "points": "2",
            "difficulty": "2",
            "category": "test",
            "create_time": "2014-04-30 12:41:41",
            "update_time": "2014-04-30 12:41:41",
            "param1": "",
            "param2": "",
            "param3": "",
            "user": "",
            "examen": "t",
            "is_examen": "1",
            "extra_file": "",
            "extra_image": "",
            "extra_url": "",
            "extra_embed": ""
        }
    ]
}